# Fdb version 3
["pdflatex"] 1554108449 "projekt.tex" "projekt.pdf" "projekt" 1554108566
  "/home/rmin/.texlive2018/texmf-var/web2c/pdftex/pdflatex.fmt" 1550762674 789641 18f98af00857ae80943759ef5b046c13 ""
  "/usr/share/texlive/texmf-dist/fonts/map/fontname/texfonts.map" 1511824771 3332 103109f5612ad95229751940c61aada0 ""
  "/usr/share/texlive/texmf-dist/fonts/tfm/public/cm/cmr10.tfm" 1480098701 1296 45809c5a464d5f32c8f98ba97c1bb47f ""
  "/usr/share/texlive/texmf-dist/tex/latex/amsfonts/amsfonts.sty" 1480098820 5949 3f3fd50a8cc94c3d4cbf4fc66cd3df1c ""
  "/usr/share/texlive/texmf-dist/tex/latex/amsfonts/amssymb.sty" 1480098820 13829 94730e64147574077f8ecfea9bb69af4 ""
  "/usr/share/texlive/texmf-dist/tex/latex/amsmath/amsbsy.sty" 1523134290 2211 ca7ce284ab93c8eecdc6029dc5ccbd73 ""
  "/usr/share/texlive/texmf-dist/tex/latex/amsmath/amsgen.sty" 1523134290 4161 7f6eb9092061a11f87d08ed13515b48d ""
  "/usr/share/texlive/texmf-dist/tex/latex/amsmath/amsmath.sty" 1523134290 84354 7292177bb735c466b78634ee4efd537e ""
  "/usr/share/texlive/texmf-dist/tex/latex/amsmath/amsopn.sty" 1523134290 4116 32e6abd27229755a83a8b7f18e583890 ""
  "/usr/share/texlive/texmf-dist/tex/latex/amsmath/amstext.sty" 1523134290 2432 8ff93b1137020e8f21930562a874ae66 ""
  "/usr/share/texlive/texmf-dist/tex/latex/base/report.cls" 1553009392 22882 dde2f6d94552c7d0da323ba0661350b5 ""
  "/usr/share/texlive/texmf-dist/tex/latex/base/size11.clo" 1553009392 8310 c914ded44e64c3c6e0ed92e7ac6a2004 ""
  "/usr/share/texlive/texmf-dist/web2c/texmf.cnf" 1553009379 33523 3a2c32bd77384f8f4508d61b4be83582 ""
  "fitthesis.cls" 1554108353 36714 e2caaa57d78e72cf69debff69203639d ""
  "opensans.sty" 0 -1 0 ""
  "projekt.aux" 1554108449 8 a94a2480d3289e625eea47cd1b285758 ""
  "projekt.tex" 1554108353 15187 22114edc9b6b8101fc09f65dc34d2ecb ""
  (generated)
  "projekt.log"
  "projekt.pdf"
