\relax 
\citation{Lebrun2011}
\citation{Herout-Abstract}
\citation{Lebrun2011}
\citation{Herout-Comics}
\bibstyle{unsrt}
\bibdata{2019-ExcelFIT-ShortName-bib}
\newlabel{sec:HowToUse}{{}{}}
\newlabel{fig:KeepCalm}{{}{}}
\newlabel{sec:FilesInTemplate}{{}{}}
\newlabel{sec:HowToWrite}{{}{}}
\newlabel{sec:Images}{{}{}}
\newlabel{sec:Sections}{{}{}}
\newlabel{sec:Keywords}{{}{}}
\newlabel{sec:UsefulTools}{{}{}}
\newlabel{sec:Fragments}{{}{}}
\newlabel{tab:ExampleTable}{{}{}}
\newlabel{fig:WidePicture}{{}{}}
\newlabel{eq:refname2}{{1}{}}
\newlabel{sec:Conclusions}{{}{}}
