\relax 
\providecommand\hyper@newdestlabel[2]{}
\providecommand\HyperFirstAtBeginDocument{\AtBeginDocument}
\HyperFirstAtBeginDocument{\ifx\hyper@anchor\@undefined
\global\let\oldcontentsline\contentsline
\gdef\contentsline#1#2#3#4{\oldcontentsline{#1}{#2}{#3}}
\global\let\oldnewlabel\newlabel
\gdef\newlabel#1#2{\newlabelxx{#1}#2}
\gdef\newlabelxx#1#2#3#4#5#6{\oldnewlabel{#1}{{#2}{#3}}}
\AtEndDocument{\ifx\hyper@anchor\@undefined
\let\contentsline\oldcontentsline
\let\newlabel\oldnewlabel
\fi}
\fi}
\global\let\hyper@last\relax 
\gdef\HyperFirstAtBeginDocument#1{#1}
\providecommand\HyField@AuxAddToFields[1]{}
\providecommand\HyField@AuxAddToCoFields[2]{}
\citation{dlib09}
\citation{dlibface}
\citation{deep-person-reid}
\citation{cao2017realtime}
\@LN@col{1}
\babel@aux{english}{}
\@LN{0}{0}
\@writefile{toc}{\contentsline {section}{\numberline {1}Introduction}{1}{section.1}}
\@LN{1}{0}
\@LN{2}{0}
\@LN{3}{0}
\@LN{4}{0}
\@LN{5}{0}
\@LN{6}{0}
\@LN{7}{0}
\@LN{8}{0}
\@LN{9}{0}
\@LN{10}{0}
\@LN{11}{0}
\@LN{12}{0}
\@LN{13}{0}
\@LN{14}{0}
\@LN{15}{0}
\@LN{16}{0}
\@LN{17}{0}
\@LN{18}{0}
\@LN{19}{0}
\@LN{20}{0}
\@LN@col{2}
\@LN{21}{0}
\@LN{22}{0}
\@LN{23}{0}
\@LN{24}{0}
\@LN{25}{0}
\@LN{26}{0}
\@LN{27}{0}
\@LN{28}{0}
\@LN{29}{0}
\@LN{30}{0}
\@LN{31}{0}
\@LN{32}{0}
\@LN{33}{0}
\@LN{34}{0}
\@LN{35}{0}
\@LN{36}{0}
\@LN{37}{0}
\@LN{38}{0}
\@LN{39}{0}
\@LN{40}{0}
\@LN{41}{0}
\citation{Lebrun2011}
\@LN@col{1}
\@writefile{lof}{\contentsline {figure}{\numberline {1}{\ignorespaces Good writing is bad writing that was rewritten several times. Don't worry, start somewhere.\relax }}{2}{figure.caption.1}}
\providecommand*\caption@xref[2]{\@setref\relax\@undefined{#1}}
\newlabel{fig:KeepCalm}{{1}{2}{Good writing is bad writing that was rewritten several times. Don't worry, start somewhere.\relax }{figure.caption.1}{}}
\@LN{42}{1}
\@LN{43}{1}
\@LN{44}{1}
\@LN{45}{1}
\@LN{46}{1}
\@LN{47}{1}
\@LN{48}{1}
\@LN{49}{1}
\@LN{50}{1}
\@writefile{toc}{\contentsline {section}{\numberline {2}How To Use This Template}{2}{section.2}}
\newlabel{sec:HowToUse}{{2}{2}{How To Use This Template}{section.2}{}}
\@LN{51}{1}
\@LN{52}{1}
\@LN{53}{1}
\@LN{54}{1}
\@LN{55}{1}
\@LN{56}{1}
\@LN{57}{1}
\@LN{58}{1}
\@LN{59}{1}
\@LN{60}{1}
\@LN{61}{1}
\@LN{62}{1}
\@LN{63}{1}
\@LN{64}{1}
\@LN{65}{1}
\@LN{66}{1}
\@LN{67}{1}
\@LN{68}{1}
\@LN{69}{1}
\@LN{70}{1}
\@LN{71}{1}
\@LN{72}{1}
\@LN{73}{1}
\@LN{74}{1}
\@LN@col{2}
\@LN{75}{1}
\@LN{76}{1}
\@LN{77}{1}
\@LN{78}{1}
\@LN{79}{1}
\@LN{80}{1}
\@LN{81}{1}
\@LN{82}{1}
\@LN{83}{1}
\@LN{84}{1}
\@LN{85}{1}
\@LN{86}{1}
\@LN{87}{1}
\@LN{88}{1}
\@LN{89}{1}
\@LN{90}{1}
\@LN{91}{1}
\@LN{92}{1}
\@LN{93}{1}
\@LN{94}{1}
\@LN{95}{1}
\@LN{96}{1}
\@LN{97}{1}
\@LN{98}{1}
\@LN{99}{1}
\@LN{100}{1}
\@LN{101}{1}
\@LN{102}{1}
\@LN{103}{1}
\@LN{104}{1}
\@LN{105}{1}
\@LN{106}{1}
\@LN{107}{1}
\@LN{108}{1}
\@LN{109}{1}
\@LN{110}{1}
\@LN{111}{1}
\@LN{112}{1}
\@LN{113}{1}
\@LN{114}{1}
\@LN{115}{1}
\@writefile{toc}{\contentsline {subsection}{\numberline {2.1}What Files are Here and Why}{2}{subsection.2.1}}
\newlabel{sec:FilesInTemplate}{{2.1}{2}{What Files are Here and Why}{subsection.2.1}{}}
\@LN{116}{1}
\@LN{117}{1}
\@LN{118}{1}
\@LN{119}{1}
\@LN{120}{1}
\@LN{121}{1}
\@LN{122}{1}
\@LN{123}{1}
\@LN{124}{1}
\@LN{125}{1}
\citation{Herout-Abstract}
\citation{Lebrun2011}
\citation{Herout-Comics}
\@LN@col{1}
\@LN{126}{2}
\@LN{127}{2}
\@LN{128}{2}
\@LN{129}{2}
\@LN{130}{2}
\@LN{131}{2}
\@LN{132}{2}
\@LN{133}{2}
\@LN{134}{2}
\@LN{135}{2}
\@LN{136}{2}
\@LN{137}{2}
\@LN{138}{2}
\@LN{139}{2}
\@LN{140}{2}
\@LN{141}{2}
\@writefile{toc}{\contentsline {section}{\numberline {3}How To Write the Paper --- A Few Hints}{3}{section.3}}
\newlabel{sec:HowToWrite}{{3}{3}{How To Write the Paper --- A Few Hints}{section.3}{}}
\@LN{142}{2}
\@LN{143}{2}
\@LN{144}{2}
\@LN{145}{2}
\@LN{146}{2}
\@LN{147}{2}
\@LN{148}{2}
\@LN{149}{2}
\@LN{150}{2}
\@LN{151}{2}
\@LN{152}{2}
\@LN{153}{2}
\@LN{154}{2}
\@LN{155}{2}
\@LN{156}{2}
\@LN{157}{2}
\@LN{158}{2}
\@LN{159}{2}
\@LN{160}{2}
\@LN{161}{2}
\@LN{162}{2}
\@LN{163}{2}
\@LN{164}{2}
\@LN{165}{2}
\@LN{166}{2}
\@LN{167}{2}
\@LN{168}{2}
\@LN{169}{2}
\@LN{170}{2}
\@LN@col{2}
\@LN{171}{2}
\@LN{172}{2}
\@LN{173}{2}
\@LN{174}{2}
\@LN{175}{2}
\@LN{176}{2}
\@LN{177}{2}
\@LN{178}{2}
\@LN{179}{2}
\@LN{180}{2}
\@LN{181}{2}
\@LN{182}{2}
\@LN{183}{2}
\@LN{184}{2}
\@LN{185}{2}
\@LN{186}{2}
\@writefile{toc}{\contentsline {subsection}{\numberline {3.1}Images and Tables}{3}{subsection.3.1}}
\newlabel{sec:Images}{{3.1}{3}{Images and Tables}{subsection.3.1}{}}
\@LN{187}{2}
\@LN{188}{2}
\@LN{189}{2}
\@LN{190}{2}
\@LN{191}{2}
\@LN{192}{2}
\@LN{193}{2}
\@LN{194}{2}
\@LN{195}{2}
\@LN{196}{2}
\@LN{197}{2}
\@LN{198}{2}
\@LN{199}{2}
\@LN{200}{2}
\@LN{201}{2}
\@LN{202}{2}
\@LN{203}{2}
\@LN{204}{2}
\@LN{205}{2}
\@LN{206}{2}
\@LN{207}{2}
\@LN{208}{2}
\@LN{209}{2}
\@LN{210}{2}
\@LN{211}{2}
\@LN{212}{2}
\@LN{213}{2}
\@LN{214}{2}
\@LN{215}{2}
\@LN{216}{2}
\@LN{217}{2}
\@LN@col{1}
\@LN{218}{3}
\@writefile{toc}{\contentsline {subsection}{\numberline {3.2}Sections and Subsections}{4}{subsection.3.2}}
\newlabel{sec:Sections}{{3.2}{4}{Sections and Subsections}{subsection.3.2}{}}
\@LN{219}{3}
\@LN{220}{3}
\@LN{221}{3}
\@LN{222}{3}
\@LN{223}{3}
\@LN{224}{3}
\@LN{225}{3}
\@LN{226}{3}
\@LN{227}{3}
\@LN{228}{3}
\@LN{229}{3}
\@LN{230}{3}
\@LN{231}{3}
\@LN{232}{3}
\@LN{233}{3}
\@LN{234}{3}
\@LN{235}{3}
\@writefile{toc}{\contentsline {subsection}{\numberline {3.3}Keywords}{4}{subsection.3.3}}
\newlabel{sec:Keywords}{{3.3}{4}{Keywords}{subsection.3.3}{}}
\@LN{236}{3}
\@LN{237}{3}
\@LN{238}{3}
\@LN{239}{3}
\@LN{240}{3}
\@LN{241}{3}
\@LN{242}{3}
\@LN{243}{3}
\@LN{244}{3}
\@writefile{toc}{\contentsline {section}{\numberline {4}Some Useful Tools}{4}{section.4}}
\newlabel{sec:UsefulTools}{{4}{4}{Some Useful Tools}{section.4}{}}
\@LN{245}{3}
\@LN{246}{3}
\@LN{247}{3}
\@LN{248}{3}
\@LN{249}{3}
\@LN{250}{3}
\@LN{251}{3}
\@LN{252}{3}
\@LN{253}{3}
\@LN{254}{3}
\@LN{255}{3}
\@LN{256}{3}
\@LN{257}{3}
\@LN{258}{3}
\@LN{259}{3}
\@LN{260}{3}
\@LN{261}{3}
\@LN{262}{3}
\@LN{263}{3}
\@LN{264}{3}
\@LN{265}{3}
\@LN@col{2}
\@LN{266}{3}
\@LN{267}{3}
\@LN{268}{3}
\@LN{269}{3}
\@LN{270}{3}
\@LN{271}{3}
\@LN{272}{3}
\@LN{273}{3}
\@writefile{toc}{\contentsline {section}{\numberline {5}Frequently Used \LaTeX  {} Fragments}{4}{section.5}}
\newlabel{sec:Fragments}{{5}{4}{Frequently Used \LaTeX {} Fragments}{section.5}{}}
\@writefile{lot}{\contentsline {table}{\numberline {1}{\ignorespaces Table of Grades\relax }}{4}{table.caption.2}}
\newlabel{tab:ExampleTable}{{1}{4}{Table of Grades\relax }{table.caption.2}{}}
\@LN{274}{3}
\@LN{275}{3}
\@LN{276}{3}
\@LN{277}{3}
\@LN{278}{3}
\@LN{279}{3}
\newlabel{eq:refname2}{{1}{4}{Frequently Used \LaTeX {} Fragments}{equation.5.1}{}}
\@LN{280}{3}
\@LN{281}{3}
\@LN{282}{3}
\@LN{283}{3}
\@LN{284}{3}
\@LN{285}{3}
\@LN{286}{3}
\@LN{287}{3}
\@LN{288}{3}
\@LN{289}{3}
\@LN{290}{3}
\@LN{291}{3}
\@LN{292}{3}
\@LN{293}{3}
\bibstyle{unsrt}
\bibdata{2019-ExcelFIT-ShortName-bib}
\bibcite{dlib09}{1}
\bibcite{dlibface}{2}
\bibcite{deep-person-reid}{3}
\bibcite{Lebrun2011}{4}
\bibcite{Herout-Abstract}{5}
\bibcite{Herout-Comics}{6}
\@writefile{lof}{\contentsline {figure}{\numberline {2}{\ignorespaces Wide Picture. The whole figure can be composed of several smaller images. If you want to address individual images in the caption or from the text, use the \textit  {subcaption} package.\relax }}{5}{figure.caption.3}}
\newlabel{fig:WidePicture}{{2}{5}{Wide Picture. The whole figure can be composed of several smaller images. If you want to address individual images in the caption or from the text, use the \textit {subcaption} package.\relax }{figure.caption.3}{}}
\@LN@col{1}
\@LN{294}{4}
\@LN{295}{4}
\@LN{296}{4}
\@LN{297}{4}
\@LN{298}{4}
\@LN{299}{4}
\@LN{300}{4}
\@LN{301}{4}
\@LN{302}{4}
\@LN{303}{4}
\@LN{304}{4}
\@writefile{toc}{\contentsline {section}{\numberline {6}Conclusions}{5}{section.6}}
\newlabel{sec:Conclusions}{{6}{5}{Conclusions}{section.6}{}}
\@LN{305}{4}
\@LN{306}{4}
\@LN{307}{4}
\@LN{308}{4}
\@LN{309}{4}
\@LN{310}{4}
\@LN{311}{4}
\@LN{312}{4}
\@LN{313}{4}
\@LN{314}{4}
\@LN{315}{4}
\@LN{316}{4}
\@LN{317}{4}
\@LN{318}{4}
\@LN{319}{4}
\@LN{320}{4}
\@LN{321}{4}
\@LN{322}{4}
\@LN{323}{4}
\@LN{324}{4}
\@LN{325}{4}
\@LN{326}{4}
\@LN{327}{4}
\@LN{328}{4}
\@LN@col{2}
\@LN{329}{4}
\@LN{330}{4}
\@LN{331}{4}
\@LN{332}{4}
\@LN{333}{4}
\@LN{334}{4}
\@LN{335}{4}
\@writefile{toc}{\contentsline {section}{References}{5}{section*.4}}
\@LN{336}{4}
\@LN{337}{4}
\@LN{338}{4}
\@LN{339}{4}
\@LN{340}{4}
\@LN{341}{4}
\@LN{342}{4}
\@LN{343}{4}
\@LN{344}{4}
\@LN{345}{4}
\@LN{346}{4}
\@LN{347}{4}
\@LN{348}{4}
\@LN{349}{4}
\@LN{350}{4}
\@LN{351}{4}
\@LN{352}{4}
\@LN{353}{4}
\@LN{354}{4}
\@LN{355}{4}
\@LN{356}{4}
\@LN{357}{4}
\newlabel{LastPage}{{}{5}{}{page.5}{}}
\ttl@finishall
