PWD /home/rmin/Dropbox/skola/FIT/bakalarka/excel/190208-Excel@FIT template
INPUT /usr/share/texlive/texmf-dist/web2c/texmf.cnf
INPUT /usr/share/texlive/texmf-dist/web2c/texmf.cnf
INPUT /home/rmin/.texlive2018/texmf-var/web2c/pdftex/pdflatex.fmt
INPUT 2019-ExcelFIT-ShortName.tex
OUTPUT 2019-ExcelFIT-ShortName.log
INPUT ExcelAtFIT.cls
INPUT ExcelAtFIT.cls
INPUT /usr/share/texlive/texmf-dist/tex/latex/base/ifthen.sty
INPUT /usr/share/texlive/texmf-dist/tex/latex/base/ifthen.sty
INPUT /usr/share/texlive/texmf-dist/tex/latex/tools/calc.sty
INPUT /usr/share/texlive/texmf-dist/tex/latex/tools/calc.sty
INPUT /usr/share/texlive/texmf-dist/tex/latex/base/article.cls
INPUT /usr/share/texlive/texmf-dist/tex/latex/base/article.cls
INPUT /usr/share/texlive/texmf-dist/tex/latex/base/fleqn.clo
INPUT /usr/share/texlive/texmf-dist/tex/latex/base/fleqn.clo
INPUT /usr/share/texlive/texmf-dist/tex/latex/base/size11.clo
INPUT /usr/share/texlive/texmf-dist/tex/latex/base/size11.clo
INPUT /usr/share/texlive/texmf-dist/fonts/map/fontname/texfonts.map
INPUT /usr/share/texlive/texmf-dist/fonts/tfm/public/cm/cmr10.tfm
INPUT /usr/share/texlive/texmf-dist/tex/generic/oberdiek/ifpdf.sty
INPUT /usr/share/texlive/texmf-dist/tex/generic/oberdiek/ifpdf.sty
INPUT /usr/share/texlive/texmf-dist/tex/latex/psnfss/times.sty
INPUT /usr/share/texlive/texmf-dist/tex/latex/psnfss/times.sty
INPUT /usr/share/texlive/texmf-dist/tex/latex/psnfss/mathptmx.sty
INPUT /usr/share/texlive/texmf-dist/tex/latex/psnfss/mathptmx.sty
INPUT /usr/share/texlive/texmf-dist/tex/latex/base/inputenc.sty
INPUT /usr/share/texlive/texmf-dist/tex/latex/base/inputenc.sty
INPUT /usr/share/texlive/texmf-dist/tex/latex/amsmath/amsmath.sty
INPUT /usr/share/texlive/texmf-dist/tex/latex/amsmath/amsmath.sty
INPUT /usr/share/texlive/texmf-dist/tex/latex/amsmath/amstext.sty
INPUT /usr/share/texlive/texmf-dist/tex/latex/amsmath/amstext.sty
INPUT /usr/share/texlive/texmf-dist/tex/latex/amsmath/amsgen.sty
INPUT /usr/share/texlive/texmf-dist/tex/latex/amsmath/amsgen.sty
INPUT /usr/share/texlive/texmf-dist/tex/latex/amsmath/amsbsy.sty
INPUT /usr/share/texlive/texmf-dist/tex/latex/amsmath/amsbsy.sty
INPUT /usr/share/texlive/texmf-dist/tex/latex/amsmath/amsopn.sty
INPUT /usr/share/texlive/texmf-dist/tex/latex/amsmath/amsopn.sty
INPUT /usr/share/texlive/texmf-dist/tex/latex/amsfonts/amsfonts.sty
INPUT /usr/share/texlive/texmf-dist/tex/latex/amsfonts/amsfonts.sty
INPUT /usr/share/texlive/texmf-dist/tex/latex/amsfonts/amssymb.sty
INPUT /usr/share/texlive/texmf-dist/tex/latex/amsfonts/amssymb.sty
INPUT /usr/share/texlive/texmf-dist/tex/latex/graphics/graphicx.sty
INPUT /usr/share/texlive/texmf-dist/tex/latex/graphics/graphicx.sty
INPUT /usr/share/texlive/texmf-dist/tex/latex/graphics/keyval.sty
INPUT /usr/share/texlive/texmf-dist/tex/latex/graphics/keyval.sty
INPUT /usr/share/texlive/texmf-dist/tex/latex/graphics/graphics.sty
INPUT /usr/share/texlive/texmf-dist/tex/latex/graphics/graphics.sty
INPUT /usr/share/texlive/texmf-dist/tex/latex/graphics/trig.sty
INPUT /usr/share/texlive/texmf-dist/tex/latex/graphics/trig.sty
INPUT /usr/share/texlive/texmf-dist/tex/latex/graphics-cfg/graphics.cfg
INPUT /usr/share/texlive/texmf-dist/tex/latex/graphics-cfg/graphics.cfg
INPUT /usr/share/texlive/texmf-dist/tex/latex/graphics-def/pdftex.def
INPUT /usr/share/texlive/texmf-dist/tex/latex/graphics-def/pdftex.def
INPUT /usr/share/texlive/texmf-dist/tex/latex/xcolor/xcolor.sty
INPUT /usr/share/texlive/texmf-dist/tex/latex/xcolor/xcolor.sty
INPUT /usr/share/texlive/texmf-dist/tex/latex/graphics-cfg/color.cfg
INPUT /usr/share/texlive/texmf-dist/tex/latex/graphics-cfg/color.cfg
INPUT /usr/share/texlive/texmf-dist/tex/generic/babel/babel.sty
INPUT /usr/share/texlive/texmf-dist/tex/generic/babel/babel.sty
INPUT /usr/share/texlive/texmf-dist/tex/generic/babel/switch.def
INPUT /usr/share/texlive/texmf-dist/tex/generic/babel-english/english.ldf
INPUT /usr/share/texlive/texmf-dist/tex/generic/babel-english/english.ldf
INPUT /usr/share/texlive/texmf-dist/tex/generic/babel/babel.def
INPUT /usr/share/texlive/texmf-dist/tex/generic/babel/txtbabel.def
INPUT /usr/share/texlive/texmf-dist/tex/latex/booktabs/booktabs.sty
INPUT /usr/share/texlive/texmf-dist/tex/latex/booktabs/booktabs.sty
INPUT /usr/share/texlive/texmf-dist/tex/latex/listings/listings.sty
INPUT /usr/share/texlive/texmf-dist/tex/latex/listings/listings.sty
INPUT /usr/share/texlive/texmf-dist/tex/latex/listings/lstmisc.sty
INPUT /usr/share/texlive/texmf-dist/tex/latex/listings/lstmisc.sty
INPUT /usr/share/texlive/texmf-dist/tex/latex/listings/listings.cfg
INPUT /usr/share/texlive/texmf-dist/tex/latex/listings/listings.cfg
INPUT /usr/share/texlive/texmf-dist/tex/latex/geometry/geometry.sty
INPUT /usr/share/texlive/texmf-dist/tex/latex/geometry/geometry.sty
INPUT /usr/share/texlive/texmf-dist/tex/generic/oberdiek/ifvtex.sty
INPUT /usr/share/texlive/texmf-dist/tex/generic/oberdiek/ifvtex.sty
INPUT /usr/share/texlive/texmf-dist/tex/generic/ifxetex/ifxetex.sty
INPUT /usr/share/texlive/texmf-dist/tex/generic/ifxetex/ifxetex.sty
INPUT /usr/share/texlive/texmf-dist/tex/latex/caption/caption.sty
INPUT /usr/share/texlive/texmf-dist/tex/latex/caption/caption.sty
INPUT /usr/share/texlive/texmf-dist/tex/latex/caption/caption3.sty
INPUT /usr/share/texlive/texmf-dist/tex/latex/caption/caption3.sty
INPUT /usr/share/texlive/texmf-dist/tex/latex/fancyhdr/fancyhdr.sty
INPUT /usr/share/texlive/texmf-dist/tex/latex/fancyhdr/fancyhdr.sty
INPUT lastpage.sty
INPUT lastpage.sty
INPUT /usr/share/texlive/texmf-dist/tex/latex/titlesec/titlesec.sty
INPUT /usr/share/texlive/texmf-dist/tex/latex/titlesec/titlesec.sty
INPUT /usr/share/texlive/texmf-dist/tex/latex/titlesec/ttlkeys.def
INPUT /usr/share/texlive/texmf-dist/tex/latex/titlesec/ttlkeys.def
INPUT /usr/share/texlive/texmf-dist/tex/latex/titlesec/titletoc.sty
INPUT /usr/share/texlive/texmf-dist/tex/latex/titlesec/titletoc.sty
INPUT /usr/share/texlive/texmf-dist/tex/latex/enumitem/enumitem.sty
INPUT /usr/share/texlive/texmf-dist/tex/latex/enumitem/enumitem.sty
INPUT /usr/share/texlive/texmf-dist/tex/latex/hyperref/hyperref.sty
INPUT /usr/share/texlive/texmf-dist/tex/latex/hyperref/hyperref.sty
INPUT /usr/share/texlive/texmf-dist/tex/generic/oberdiek/hobsub-hyperref.sty
INPUT /usr/share/texlive/texmf-dist/tex/generic/oberdiek/hobsub-hyperref.sty
INPUT /usr/share/texlive/texmf-dist/tex/generic/oberdiek/hobsub-hyperref.sty
INPUT /usr/share/texlive/texmf-dist/tex/generic/oberdiek/hobsub-generic.sty
INPUT /usr/share/texlive/texmf-dist/tex/generic/oberdiek/hobsub-generic.sty
INPUT /usr/share/texlive/texmf-dist/tex/latex/oberdiek/auxhook.sty
INPUT /usr/share/texlive/texmf-dist/tex/latex/oberdiek/auxhook.sty
INPUT /usr/share/texlive/texmf-dist/tex/latex/oberdiek/kvoptions.sty
INPUT /usr/share/texlive/texmf-dist/tex/latex/oberdiek/kvoptions.sty
INPUT /usr/share/texlive/texmf-dist/tex/latex/hyperref/pd1enc.def
INPUT /usr/share/texlive/texmf-dist/tex/latex/hyperref/pd1enc.def
INPUT /usr/share/texlive/texmf-dist/tex/latex/latexconfig/hyperref.cfg
INPUT /usr/share/texlive/texmf-dist/tex/latex/latexconfig/hyperref.cfg
INPUT /usr/share/texlive/texmf-dist/tex/latex/hyperref/puenc.def
INPUT /usr/share/texlive/texmf-dist/tex/latex/hyperref/puenc.def
INPUT /usr/share/texlive/texmf-dist/tex/latex/url/url.sty
INPUT /usr/share/texlive/texmf-dist/tex/latex/url/url.sty
INPUT /usr/share/texlive/texmf-dist/tex/latex/hyperref/hpdftex.def
INPUT /usr/share/texlive/texmf-dist/tex/latex/hyperref/hpdftex.def
INPUT /usr/share/texlive/texmf-dist/tex/latex/oberdiek/rerunfilecheck.sty
INPUT /usr/share/texlive/texmf-dist/tex/latex/oberdiek/rerunfilecheck.sty
INPUT /usr/share/texlive/texmf-dist/tex/latex/regexpatch/regexpatch.sty
INPUT /usr/share/texlive/texmf-dist/tex/latex/regexpatch/regexpatch.sty
INPUT /usr/share/texlive/texmf-dist/tex/latex/l3kernel/expl3.sty
INPUT /usr/share/texlive/texmf-dist/tex/latex/l3kernel/expl3.sty
INPUT /usr/share/texlive/texmf-dist/tex/latex/l3kernel/expl3-code.tex
INPUT /usr/share/texlive/texmf-dist/tex/latex/l3kernel/expl3-code.tex
INPUT /usr/share/texlive/texmf-dist/fonts/tfm/public/cm/cmr10.tfm
INPUT /usr/share/texlive/texmf-dist/fonts/tfm/public/cm/cmr10.tfm
INPUT /usr/share/texlive/texmf-dist/fonts/tfm/public/cm/cmr10.tfm
INPUT /usr/share/texlive/texmf-dist/fonts/tfm/public/cm/cmr10.tfm
INPUT /usr/share/texlive/texmf-dist/fonts/tfm/public/cm/cmr10.tfm
INPUT /usr/share/texlive/texmf-dist/fonts/tfm/public/cm/cmr10.tfm
INPUT /usr/share/texlive/texmf-dist/fonts/tfm/public/cm/cmr10.tfm
INPUT /usr/share/texlive/texmf-dist/fonts/tfm/public/cm/cmr10.tfm
INPUT /usr/share/texlive/texmf-dist/fonts/tfm/public/cm/cmr10.tfm
INPUT /usr/share/texlive/texmf-dist/fonts/tfm/public/cm/cmr10.tfm
INPUT /usr/share/texlive/texmf-dist/tex/generic/unicode-data/UnicodeData.txt
INPUT /usr/share/texlive/texmf-dist/tex/generic/unicode-data/UnicodeData.txt
INPUT /usr/share/texlive/texmf-dist/tex/latex/l3kernel/l3pdfmode.def
INPUT /usr/share/texlive/texmf-dist/tex/latex/l3kernel/l3pdfmode.def
INPUT /usr/share/texlive/texmf-dist/tex/latex/l3packages/xparse/xparse.sty
INPUT /usr/share/texlive/texmf-dist/tex/latex/l3packages/xparse/xparse.sty
INPUT /usr/share/texlive/texmf-dist/tex/latex/blindtext/blindtext.sty
INPUT /usr/share/texlive/texmf-dist/tex/latex/blindtext/blindtext.sty
INPUT /usr/share/texlive/texmf-dist/tex/latex/tools/xspace.sty
INPUT /usr/share/texlive/texmf-dist/tex/latex/tools/xspace.sty
INPUT /usr/share/texlive/texmf-dist/tex/latex/lineno/lineno.sty
INPUT /usr/share/texlive/texmf-dist/tex/latex/lineno/lineno.sty
INPUT /usr/share/texlive/texmf-dist/tex/latex/microtype/microtype.sty
INPUT /usr/share/texlive/texmf-dist/tex/latex/microtype/microtype.sty
INPUT /usr/share/texlive/texmf-dist/tex/latex/microtype/microtype-pdftex.def
INPUT /usr/share/texlive/texmf-dist/tex/latex/microtype/microtype-pdftex.def
INPUT /usr/share/texlive/texmf-dist/tex/latex/microtype/microtype.cfg
INPUT /usr/share/texlive/texmf-dist/tex/latex/microtype/microtype.cfg
INPUT /usr/share/texlive/texmf-dist/tex/latex/microtype/microtype.cfg
INPUT 2019-ExcelFIT-ShortName.aux
INPUT 2019-ExcelFIT-ShortName.aux
OUTPUT 2019-ExcelFIT-ShortName.aux
INPUT /usr/share/texlive/texmf-dist/tex/latex/psnfss/ot1ptm.fd
INPUT /usr/share/texlive/texmf-dist/tex/latex/psnfss/ot1ptm.fd
INPUT /usr/share/texlive/texmf-dist/fonts/tfm/adobe/times/ptmr7t.tfm
INPUT /usr/share/texlive/texmf-dist/tex/context/base/mkii/supp-pdf.mkii
INPUT /usr/share/texlive/texmf-dist/tex/context/base/mkii/supp-pdf.mkii
INPUT /usr/share/texlive/texmf-dist/tex/latex/oberdiek/epstopdf-base.sty
INPUT /usr/share/texlive/texmf-dist/tex/latex/oberdiek/epstopdf-base.sty
INPUT /usr/share/texlive/texmf-dist/tex/latex/oberdiek/grfext.sty
INPUT /usr/share/texlive/texmf-dist/tex/latex/oberdiek/grfext.sty
INPUT /usr/share/texlive/texmf-dist/tex/latex/latexconfig/epstopdf-sys.cfg
INPUT /usr/share/texlive/texmf-dist/tex/latex/latexconfig/epstopdf-sys.cfg
INPUT /usr/share/texlive/texmf-dist/tex/latex/hyperref/nameref.sty
INPUT /usr/share/texlive/texmf-dist/tex/latex/hyperref/nameref.sty
INPUT /usr/share/texlive/texmf-dist/tex/generic/oberdiek/gettitlestring.sty
INPUT /usr/share/texlive/texmf-dist/tex/generic/oberdiek/gettitlestring.sty
INPUT 2019-ExcelFIT-ShortName.out
INPUT 2019-ExcelFIT-ShortName.out
INPUT 2019-ExcelFIT-ShortName.out
INPUT 2019-ExcelFIT-ShortName.out
OUTPUT 2019-ExcelFIT-ShortName.pdf
INPUT ./2019-ExcelFIT-ShortName.out
INPUT ./2019-ExcelFIT-ShortName.out
OUTPUT 2019-ExcelFIT-ShortName.out
INPUT /usr/share/texlive/texmf-dist/tex/latex/microtype/mt-ptm.cfg
INPUT /usr/share/texlive/texmf-dist/tex/latex/microtype/mt-ptm.cfg
INPUT /usr/share/texlive/texmf-dist/fonts/tfm/adobe/times/ptmr7t.tfm
INPUT /usr/share/texlive/texmf-dist/tex/latex/psnfss/ot1phv.fd
INPUT /usr/share/texlive/texmf-dist/tex/latex/psnfss/ot1phv.fd
INPUT /usr/share/texlive/texmf-dist/fonts/tfm/adobe/helvetic/phvr7t.tfm
INPUT /usr/share/texlive/texmf-dist/fonts/tfm/adobe/helvetic/phvb7t.tfm
INPUT VUT-FIT-logo.pdf
INPUT ./VUT-FIT-logo.pdf
INPUT ./VUT-FIT-logo.pdf
INPUT ExcelAtFIT-logo.pdf
INPUT ./ExcelAtFIT-logo.pdf
INPUT ./ExcelAtFIT-logo.pdf
INPUT /usr/share/texlive/texmf-dist/fonts/tfm/adobe/helvetic/phvb7t.tfm
INPUT /usr/share/texlive/texmf-dist/tex/latex/psnfss/ot1pcr.fd
INPUT /usr/share/texlive/texmf-dist/tex/latex/psnfss/ot1pcr.fd
INPUT /usr/share/texlive/texmf-dist/fonts/tfm/adobe/courier/pcrb7t.tfm
INPUT /usr/share/texlive/texmf-dist/tex/latex/psnfss/ot1ztmcm.fd
INPUT /usr/share/texlive/texmf-dist/tex/latex/psnfss/ot1ztmcm.fd
INPUT /usr/share/texlive/texmf-dist/fonts/tfm/adobe/times/zptmcm7t.tfm
INPUT /usr/share/texlive/texmf-dist/fonts/tfm/adobe/times/zptmcm7t.tfm
INPUT /usr/share/texlive/texmf-dist/fonts/tfm/adobe/times/zptmcm7t.tfm
INPUT /usr/share/texlive/texmf-dist/tex/latex/psnfss/omlztmcm.fd
INPUT /usr/share/texlive/texmf-dist/tex/latex/psnfss/omlztmcm.fd
INPUT /usr/share/texlive/texmf-dist/fonts/tfm/adobe/times/zptmcm7m.tfm
INPUT /usr/share/texlive/texmf-dist/fonts/tfm/adobe/times/zptmcm7m.tfm
INPUT /usr/share/texlive/texmf-dist/fonts/tfm/adobe/times/zptmcm7m.tfm
INPUT /usr/share/texlive/texmf-dist/tex/latex/psnfss/omsztmcm.fd
INPUT /usr/share/texlive/texmf-dist/tex/latex/psnfss/omsztmcm.fd
INPUT /usr/share/texlive/texmf-dist/fonts/tfm/adobe/times/zptmcm7y.tfm
INPUT /usr/share/texlive/texmf-dist/fonts/tfm/adobe/times/zptmcm7y.tfm
INPUT /usr/share/texlive/texmf-dist/fonts/tfm/adobe/times/zptmcm7y.tfm
INPUT /usr/share/texlive/texmf-dist/tex/latex/psnfss/omxztmcm.fd
INPUT /usr/share/texlive/texmf-dist/tex/latex/psnfss/omxztmcm.fd
INPUT /usr/share/texlive/texmf-dist/fonts/tfm/adobe/times/zptmcm7v.tfm
INPUT /usr/share/texlive/texmf-dist/fonts/tfm/adobe/times/zptmcm7v.tfm
INPUT /usr/share/texlive/texmf-dist/fonts/tfm/adobe/times/zptmcm7v.tfm
INPUT /usr/share/texlive/texmf-dist/fonts/tfm/adobe/times/ptmb7t.tfm
INPUT /usr/share/texlive/texmf-dist/fonts/tfm/adobe/times/ptmb7t.tfm
INPUT /usr/share/texlive/texmf-dist/fonts/tfm/adobe/times/ptmb7t.tfm
INPUT /usr/share/texlive/texmf-dist/fonts/tfm/adobe/times/ptmri7t.tfm
INPUT /usr/share/texlive/texmf-dist/fonts/tfm/adobe/times/ptmri7t.tfm
INPUT /usr/share/texlive/texmf-dist/fonts/tfm/adobe/times/ptmri7t.tfm
INPUT /usr/share/texlive/texmf-dist/fonts/tfm/public/amsfonts/symbols/msam10.tfm
INPUT /usr/share/texlive/texmf-dist/tex/latex/microtype/mt-msa.cfg
INPUT /usr/share/texlive/texmf-dist/tex/latex/microtype/mt-msa.cfg
INPUT /usr/share/texlive/texmf-dist/fonts/tfm/public/amsfonts/symbols/msam10.tfm
INPUT /usr/share/texlive/texmf-dist/fonts/tfm/public/amsfonts/symbols/msam10.tfm
INPUT /usr/share/texlive/texmf-dist/fonts/tfm/public/amsfonts/symbols/msbm10.tfm
INPUT /usr/share/texlive/texmf-dist/tex/latex/microtype/mt-msb.cfg
INPUT /usr/share/texlive/texmf-dist/tex/latex/microtype/mt-msb.cfg
INPUT /usr/share/texlive/texmf-dist/fonts/tfm/public/amsfonts/symbols/msbm10.tfm
INPUT /usr/share/texlive/texmf-dist/fonts/tfm/public/amsfonts/symbols/msbm10.tfm
INPUT /usr/share/texlive/texmf-dist/fonts/tfm/adobe/helvetic/phvr7t.tfm
INPUT /usr/share/texlive/texmf-dist/fonts/tfm/adobe/helvetic/phvb7t.tfm
INPUT /usr/share/texlive/texmf-dist/fonts/tfm/adobe/helvetic/phvb7t.tfm
INPUT /usr/share/texlive/texmf-dist/fonts/tfm/adobe/helvetic/phvr7t.tfm
INPUT images/placeholder.pdf
INPUT ./images/placeholder.pdf
INPUT ./images/placeholder.pdf
INPUT images/placeholder.pdf
INPUT ./images/placeholder.pdf
INPUT images/placeholder.pdf
INPUT ./images/placeholder.pdf
INPUT /usr/share/texlive/texmf-dist/fonts/tfm/adobe/times/zptmcm7t.tfm
INPUT /usr/share/texlive/texmf-dist/fonts/tfm/adobe/times/zptmcm7t.tfm
INPUT /usr/share/texlive/texmf-dist/fonts/tfm/adobe/times/zptmcm7t.tfm
INPUT /usr/share/texlive/texmf-dist/fonts/tfm/adobe/times/zptmcm7m.tfm
INPUT /usr/share/texlive/texmf-dist/fonts/tfm/adobe/times/zptmcm7m.tfm
INPUT /usr/share/texlive/texmf-dist/fonts/tfm/adobe/times/zptmcm7m.tfm
INPUT /usr/share/texlive/texmf-dist/fonts/tfm/adobe/times/zptmcm7y.tfm
INPUT /usr/share/texlive/texmf-dist/fonts/tfm/adobe/times/zptmcm7y.tfm
INPUT /usr/share/texlive/texmf-dist/fonts/tfm/adobe/times/zptmcm7y.tfm
INPUT /usr/share/texlive/texmf-dist/fonts/tfm/adobe/times/zptmcm7v.tfm
INPUT /usr/share/texlive/texmf-dist/fonts/tfm/adobe/times/zptmcm7v.tfm
INPUT /usr/share/texlive/texmf-dist/fonts/tfm/adobe/times/zptmcm7v.tfm
INPUT /usr/share/texlive/texmf-dist/fonts/tfm/adobe/times/ptmb7t.tfm
INPUT /usr/share/texlive/texmf-dist/fonts/tfm/adobe/times/ptmb7t.tfm
INPUT /usr/share/texlive/texmf-dist/fonts/tfm/adobe/times/ptmb7t.tfm
INPUT /usr/share/texlive/texmf-dist/fonts/tfm/adobe/times/ptmri7t.tfm
INPUT /usr/share/texlive/texmf-dist/fonts/tfm/adobe/times/ptmri7t.tfm
INPUT /usr/share/texlive/texmf-dist/fonts/tfm/adobe/times/ptmri7t.tfm
INPUT /usr/share/texlive/texmf-dist/fonts/tfm/public/amsfonts/symbols/msam10.tfm
INPUT /usr/share/texlive/texmf-dist/fonts/tfm/public/amsfonts/symbols/msam10.tfm
INPUT /usr/share/texlive/texmf-dist/fonts/tfm/public/amsfonts/symbols/msam10.tfm
INPUT /usr/share/texlive/texmf-dist/fonts/tfm/public/amsfonts/symbols/msbm10.tfm
INPUT /usr/share/texlive/texmf-dist/fonts/tfm/public/amsfonts/symbols/msbm10.tfm
INPUT /usr/share/texlive/texmf-dist/fonts/tfm/public/amsfonts/symbols/msbm10.tfm
INPUT /usr/share/texlive/texmf-dist/fonts/tfm/adobe/helvetic/phvro7t.tfm
INPUT /usr/share/texlive/texmf-dist/fonts/tfm/adobe/helvetic/phvr7t.tfm
INPUT /usr/share/texlive/texmf-dist/fonts/tfm/adobe/helvetic/phvr7t.tfm
INPUT /usr/share/texlive/texmf-dist/fonts/tfm/adobe/helvetic/phvro7t.tfm
INPUT /usr/share/texlive/texmf-dist/fonts/tfm/adobe/times/ptmr7t.tfm
INPUT /usr/share/texlive/texmf-dist/fonts/tfm/adobe/helvetic/phvb7t.tfm
INPUT /usr/share/texlive/texmf-dist/fonts/tfm/adobe/times/ptmr7t.tfm
INPUT /usr/share/texlive/texmf-dist/fonts/vf/adobe/courier/pcrb7t.vf
INPUT /usr/share/texlive/texmf-dist/fonts/tfm/adobe/courier/pcrb8r.tfm
INPUT /usr/share/texlive/texmf-dist/fonts/map/pdftex/updmap/pdftex.map
INPUT /usr/share/texlive/texmf-dist/fonts/vf/adobe/helvetic/phvb7t.vf
INPUT /usr/share/texlive/texmf-dist/fonts/tfm/adobe/helvetic/phvb8r.tfm
INPUT /usr/share/texlive/texmf-dist/fonts/vf/adobe/helvetic/phvr7t.vf
INPUT /usr/share/texlive/texmf-dist/fonts/tfm/adobe/helvetic/phvr8r.tfm
INPUT /usr/share/texlive/texmf-dist/fonts/vf/adobe/helvetic/phvb7t.vf
INPUT /usr/share/texlive/texmf-dist/fonts/tfm/adobe/helvetic/phvb8r.tfm
INPUT /usr/share/texlive/texmf-dist/fonts/vf/adobe/helvetic/phvr7t.vf
INPUT /usr/share/texlive/texmf-dist/fonts/tfm/adobe/helvetic/phvr8r.tfm
INPUT /usr/share/texlive/texmf-dist/fonts/vf/adobe/helvetic/phvro7t.vf
INPUT /usr/share/texlive/texmf-dist/fonts/tfm/adobe/helvetic/phvro8r.tfm
INPUT /usr/share/texlive/texmf-dist/fonts/vf/adobe/helvetic/phvr7t.vf
INPUT /usr/share/texlive/texmf-dist/fonts/tfm/adobe/helvetic/phvr8r.tfm
INPUT /usr/share/texlive/texmf-dist/fonts/vf/adobe/helvetic/phvro7t.vf
INPUT /usr/share/texlive/texmf-dist/fonts/tfm/adobe/helvetic/phvro8r.tfm
INPUT /usr/share/texlive/texmf-dist/fonts/vf/adobe/helvetic/phvb7t.vf
INPUT /usr/share/texlive/texmf-dist/fonts/tfm/adobe/helvetic/phvb8r.tfm
INPUT /usr/share/texlive/texmf-dist/fonts/vf/adobe/helvetic/phvb7t.vf
INPUT /usr/share/texlive/texmf-dist/fonts/tfm/adobe/helvetic/phvb8r.tfm
INPUT /usr/share/texlive/texmf-dist/fonts/vf/adobe/times/ptmr7t.vf
INPUT /usr/share/texlive/texmf-dist/fonts/tfm/adobe/times/ptmr8r.tfm
INPUT /usr/share/texlive/texmf-dist/fonts/vf/adobe/times/ptmr7t.vf
INPUT /usr/share/texlive/texmf-dist/fonts/tfm/adobe/times/ptmr8r.tfm
INPUT /usr/share/texlive/texmf-dist/fonts/vf/adobe/times/ptmb7t.vf
INPUT /usr/share/texlive/texmf-dist/fonts/tfm/adobe/times/ptmb8r.tfm
INPUT /usr/share/texlive/texmf-dist/fonts/vf/adobe/times/ptmri7t.vf
INPUT /usr/share/texlive/texmf-dist/fonts/tfm/adobe/times/ptmri8r.tfm
INPUT images/keep-calm.png
INPUT ./images/keep-calm.png
INPUT ./images/keep-calm.png
INPUT /usr/share/texlive/texmf-dist/fonts/tfm/adobe/helvetic/phvb7t.tfm
INPUT /usr/share/texlive/texmf-dist/fonts/vf/adobe/helvetic/phvb7t.vf
INPUT /usr/share/texlive/texmf-dist/fonts/tfm/adobe/helvetic/phvb8r.tfm
INPUT /usr/share/texlive/texmf-dist/fonts/vf/adobe/times/zptmcm7y.vf
INPUT /usr/share/texlive/texmf-dist/fonts/tfm/public/cm/cmsy10.tfm
INPUT /usr/share/texlive/texmf-dist/fonts/tfm/adobe/symbol/psyr.tfm
INPUT /usr/share/texlive/texmf-dist/fonts/tfm/public/rsfs/rsfs10.tfm
INPUT /usr/share/texlive/texmf-dist/fonts/tfm/adobe/times/ptmr7t.tfm
INPUT /usr/share/texlive/texmf-dist/fonts/tfm/adobe/times/zptmcm7t.tfm
INPUT /usr/share/texlive/texmf-dist/fonts/tfm/adobe/times/zptmcm7m.tfm
INPUT /usr/share/texlive/texmf-dist/fonts/tfm/adobe/times/zptmcm7y.tfm
INPUT /usr/share/texlive/texmf-dist/fonts/tfm/adobe/times/zptmcm7v.tfm
INPUT /usr/share/texlive/texmf-dist/fonts/tfm/adobe/times/ptmb7t.tfm
INPUT /usr/share/texlive/texmf-dist/fonts/tfm/adobe/times/ptmri7t.tfm
INPUT /usr/share/texlive/texmf-dist/fonts/tfm/public/amsfonts/symbols/msam10.tfm
INPUT /usr/share/texlive/texmf-dist/fonts/tfm/public/amsfonts/symbols/msbm10.tfm
INPUT /usr/share/texlive/texmf-dist/fonts/tfm/adobe/times/ptmr7t.tfm
INPUT /usr/share/texlive/texmf-dist/fonts/tfm/adobe/courier/pcrr7t.tfm
INPUT images/placeholder.pdf
INPUT ./images/placeholder.pdf
INPUT /usr/share/texlive/texmf-dist/fonts/tfm/adobe/courier/pcrr7t.tfm
INPUT /usr/share/texlive/texmf-dist/tex/latex/psnfss/omspcr.fd
INPUT /usr/share/texlive/texmf-dist/tex/latex/psnfss/omspcr.fd
INPUT /usr/share/texlive/texmf-dist/fonts/vf/adobe/courier/pcrr7t.vf
INPUT /usr/share/texlive/texmf-dist/fonts/tfm/adobe/courier/pcrr8r.tfm
INPUT /usr/share/texlive/texmf-dist/fonts/vf/adobe/times/ptmr7t.vf
INPUT /usr/share/texlive/texmf-dist/fonts/tfm/adobe/times/ptmr8r.tfm
INPUT /usr/share/texlive/texmf-dist/fonts/vf/adobe/courier/pcrr7t.vf
INPUT /usr/share/texlive/texmf-dist/fonts/tfm/adobe/courier/pcrr8r.tfm
INPUT /usr/share/texlive/texmf-dist/fonts/tfm/adobe/helvetic/phvb7t.tfm
INPUT images/placeholder.pdf
INPUT ./images/placeholder.pdf
INPUT images/placeholder.pdf
INPUT ./images/placeholder.pdf
INPUT images/placeholder.pdf
INPUT ./images/placeholder.pdf
INPUT images/placeholder.pdf
INPUT ./images/placeholder.pdf
INPUT images/placeholder.pdf
INPUT ./images/placeholder.pdf
INPUT /usr/share/texlive/texmf-dist/tex/latex/listings/lstlang1.sty
INPUT /usr/share/texlive/texmf-dist/tex/latex/listings/lstlang1.sty
INPUT /usr/share/texlive/texmf-dist/fonts/tfm/adobe/courier/pcrr7t.tfm
INPUT /usr/share/texlive/texmf-dist/fonts/tfm/adobe/courier/pcrb7t.tfm
INPUT /usr/share/texlive/texmf-dist/fonts/vf/adobe/helvetic/phvb7t.vf
INPUT /usr/share/texlive/texmf-dist/fonts/tfm/adobe/helvetic/phvb8r.tfm
INPUT /usr/share/texlive/texmf-dist/fonts/vf/adobe/times/zptmcm7t.vf
INPUT /usr/share/texlive/texmf-dist/fonts/vf/adobe/times/zptmcm7m.vf
INPUT /usr/share/texlive/texmf-dist/fonts/tfm/adobe/times/psyro.tfm
INPUT /usr/share/texlive/texmf-dist/fonts/tfm/public/cm/cmmi10.tfm
INPUT /usr/share/texlive/texmf-dist/fonts/vf/adobe/times/zptmcm7t.vf
INPUT /usr/share/texlive/texmf-dist/fonts/tfm/adobe/symbol/psyr.tfm
INPUT /usr/share/texlive/texmf-dist/fonts/tfm/public/cm/cmr10.tfm
INPUT /usr/share/texlive/texmf-dist/fonts/vf/adobe/courier/pcrr7t.vf
INPUT /usr/share/texlive/texmf-dist/fonts/tfm/adobe/courier/pcrr8r.tfm
INPUT /usr/share/texlive/texmf-dist/fonts/vf/adobe/courier/pcrb7t.vf
INPUT /usr/share/texlive/texmf-dist/fonts/tfm/adobe/courier/pcrb8r.tfm
INPUT /usr/share/texlive/texmf-dist/fonts/vf/adobe/times/zptmcm7m.vf
INPUT /usr/share/texlive/texmf-dist/fonts/tfm/adobe/times/psyro.tfm
INPUT /usr/share/texlive/texmf-dist/fonts/tfm/public/cm/cmmi10.tfm
INPUT /usr/share/texlive/texmf-dist/fonts/tfm/adobe/times/ptmri8r.tfm
INPUT /usr/share/texlive/texmf-dist/fonts/vf/adobe/times/zptmcm7v.vf
INPUT /usr/share/texlive/texmf-dist/fonts/tfm/public/cm/cmex10.tfm
INPUT /usr/share/texlive/texmf-dist/fonts/tfm/public/cm/cmex10.tfm
INPUT /usr/share/texlive/texmf-dist/fonts/tfm/adobe/symbol/psyr.tfm
INPUT /usr/share/texlive/texmf-dist/fonts/vf/adobe/times/zptmcm7m.vf
INPUT /usr/share/texlive/texmf-dist/fonts/tfm/adobe/times/psyro.tfm
INPUT /usr/share/texlive/texmf-dist/fonts/tfm/public/cm/cmmi10.tfm
INPUT /usr/share/texlive/texmf-dist/fonts/tfm/adobe/times/ptmri8r.tfm
INPUT /usr/share/texlive/texmf-dist/fonts/vf/adobe/times/zptmcm7y.vf
INPUT /usr/share/texlive/texmf-dist/fonts/tfm/public/cm/cmsy10.tfm
INPUT /usr/share/texlive/texmf-dist/fonts/tfm/public/rsfs/rsfs10.tfm
INPUT /usr/share/texlive/texmf-dist/fonts/vf/adobe/times/ptmr7t.vf
INPUT /usr/share/texlive/texmf-dist/fonts/tfm/adobe/times/ptmr8r.tfm
INPUT /usr/share/texlive/texmf-dist/fonts/vf/adobe/times/zptmcm7t.vf
INPUT /usr/share/texlive/texmf-dist/fonts/tfm/adobe/symbol/psyr.tfm
INPUT /usr/share/texlive/texmf-dist/fonts/tfm/public/cm/cmr10.tfm
INPUT /usr/share/texlive/texmf-dist/fonts/vf/adobe/times/zptmcm7m.vf
INPUT /usr/share/texlive/texmf-dist/fonts/tfm/adobe/times/psyro.tfm
INPUT /usr/share/texlive/texmf-dist/fonts/tfm/public/cm/cmmi10.tfm
INPUT /usr/share/texlive/texmf-dist/fonts/tfm/adobe/times/ptmri8r.tfm
INPUT /usr/share/texlive/texmf-dist/fonts/vf/adobe/times/zptmcm7y.vf
INPUT /usr/share/texlive/texmf-dist/fonts/tfm/public/cm/cmsy10.tfm
INPUT /usr/share/texlive/texmf-dist/fonts/tfm/public/rsfs/rsfs10.tfm
INPUT 2019-ExcelFIT-ShortName.bbl
INPUT 2019-ExcelFIT-ShortName.bbl
INPUT 2019-ExcelFIT-ShortName.aux
INPUT ./2019-ExcelFIT-ShortName.out
INPUT ./2019-ExcelFIT-ShortName.out
INPUT /usr/share/texlive/texmf-dist/fonts/enc/dvips/base/8r.enc
INPUT /usr/share/texlive/texmf-dist/fonts/type1/public/amsfonts/cm/cmmi10.pfb
INPUT /usr/share/texlive/texmf-dist/fonts/type1/public/amsfonts/cm/cmr10.pfb
INPUT /usr/share/texlive/texmf-dist/fonts/type1/public/amsfonts/cm/cmsy10.pfb
INPUT /usr/share/texlive/texmf-dist/fonts/type1/urw/courier/ucrb8a.pfb
INPUT /usr/share/texlive/texmf-dist/fonts/type1/urw/courier/ucrr8a.pfb
INPUT /usr/share/texlive/texmf-dist/fonts/type1/urw/helvetic/uhvb8a.pfb
INPUT /usr/share/texlive/texmf-dist/fonts/type1/urw/helvetic/uhvr8a.pfb
INPUT /usr/share/texlive/texmf-dist/fonts/type1/urw/helvetic/uhvro8a.pfb
INPUT /usr/share/texlive/texmf-dist/fonts/type1/urw/symbol/usyr.pfb
INPUT /usr/share/texlive/texmf-dist/fonts/type1/urw/symbol/usyr.pfb
INPUT /usr/share/texlive/texmf-dist/fonts/type1/urw/times/utmb8a.pfb
INPUT /usr/share/texlive/texmf-dist/fonts/type1/urw/times/utmr8a.pfb
INPUT /usr/share/texlive/texmf-dist/fonts/type1/urw/times/utmri8a.pfb
